2020-02-12 20:41:05.527980 ------> LOCAL SCOPE DEVICES LightPanel <------ 
2020-02-12 20:41:05.527980 ------> END LOCAL SCOPE <------ 
2020-02-12 20:41:06.586882 ------> GROUP SCOPE DEVICES LightPanel <------ 
2020-02-12 20:41:06.586882 ------> END GROUP SCOPE <------ 
2020-02-12 20:41:08.693200 ------> REGION SCOPE DEVICES LightPanel <------ 
2020-02-12 20:41:08.693200 ------> END REGION SCOPE <------ 
Last scope achieved, the exception could not be handled!
