2020-02-12 20:39:05.243451 ------> LOCAL SCOPE DEVICES LightPanel <------ 
2020-02-12 20:39:05.243451 ------> END LOCAL SCOPE <------ 
2020-02-12 20:39:06.307433 ------> GROUP SCOPE DEVICES LightPanel <------ 
2020-02-12 20:39:06.307433 ------> END GROUP SCOPE <------ 
