2020-02-12 20:40:41.476016 ------> LOCAL SCOPE DEVICES LightPanel <------ 
2020-02-12 20:40:41.476016 ------> END LOCAL SCOPE <------ 
2020-02-12 20:40:42.535002 ------> GROUP SCOPE DEVICES LightPanel <------ 
2020-02-12 20:40:42.535002 ------> END GROUP SCOPE <------ 
2020-02-12 20:40:44.654375 ------> REGION SCOPE DEVICES LightPanel <------ 
2020-02-12 20:40:44.654375 ------> END REGION SCOPE <------ 
