2020-02-12 20:44:30.021871 ------> LOCAL SCOPE DEVICES LightPanel <------ 
2020-02-12 20:44:30.021871 ------> END LOCAL SCOPE <------ 
2020-02-12 20:44:31.079578 ------> GROUP SCOPE DEVICES LightPanel <------ 
2020-02-12 20:44:31.079578 ------> END GROUP SCOPE <------ 
2020-02-12 20:44:33.202244 ------> REGION SCOPE DEVICES LightPanel <------ 
2020-02-12 20:44:33.202244 ------> END REGION SCOPE <------ 
