2020-02-12 20:49:54.754681 ------> LOCAL SCOPE DEVICES LightPanel <------ 
2020-02-12 20:49:54.754681 ------> END LOCAL SCOPE <------ 
2020-02-12 20:49:55.814409 ------> GROUP SCOPE DEVICES LightPanel <------ 
2020-02-12 20:49:55.814409 ------> END GROUP SCOPE <------ 
2020-02-12 20:49:57.919793 ------> REGION SCOPE DEVICES LightPanel <------ 
2020-02-12 20:49:57.919793 ------> END REGION SCOPE <------ 
