2020-02-12 20:45:18.140484 ------> LOCAL SCOPE DEVICES LightPanel <------ 
2020-02-12 20:45:18.140484 ------> END LOCAL SCOPE <------ 
2020-02-12 20:45:19.203040 ------> GROUP SCOPE DEVICES LightPanel <------ 
2020-02-12 20:45:19.203040 ------> END GROUP SCOPE <------ 
