2020-02-12 20:39:29.303739 ------> LOCAL SCOPE DEVICES LightPanel <------ 
2020-02-12 20:39:29.303739 ------> END LOCAL SCOPE <------ 
2020-02-12 20:39:30.357979 ------> GROUP SCOPE DEVICES LightPanel <------ 
2020-02-12 20:39:30.357979 ------> END GROUP SCOPE <------ 
