2020-02-12 20:43:29.886040 ------> LOCAL SCOPE DEVICES LightPanel <------ 
2020-02-12 20:43:29.886040 ------> END LOCAL SCOPE <------ 
2020-02-12 20:43:30.951940 ------> GROUP SCOPE DEVICES LightPanel <------ 
2020-02-12 20:43:30.951940 ------> END GROUP SCOPE <------ 
2020-02-12 20:43:33.065353 ------> REGION SCOPE DEVICES LightPanel <------ 
2020-02-12 20:43:33.065353 ------> END REGION SCOPE <------ 
Last scope achieved, the exception could not be handled!
