2020-02-11 16:40:25.909089 ------> LOCAL SCOPE DEVICES Sprinkler <------ 
2020-02-11 16:40:25.909089 ------> END LOCAL SCOPE <------ 
2020-02-11 16:40:26.976913 ------> GROUP SCOPE DEVICES Sprinkler <------ 
2020-02-11 16:40:26.976913 ------> END GROUP SCOPE <------ 
2020-02-11 16:40:29.124963 ------> REGION SCOPE DEVICES SoundAlarm <------ 
2020-02-11 16:40:29.124963 ------> REGION SCOPE DEVICES Phone <------ 
2020-02-11 16:40:29.124963 ------> END REGION SCOPE <------ 
