2020-02-11 16:43:27.336944 ------> LOCAL SCOPE DEVICES Sprinkler <------ 
2020-02-11 16:43:27.336944 ------> END LOCAL SCOPE <------ 
2020-02-11 16:43:28.388795 ------> GROUP SCOPE DEVICES Sprinkler <------ 
2020-02-11 16:43:28.388795 ------> END GROUP SCOPE <------ 
2020-02-11 16:43:30.534032 ------> REGION SCOPE DEVICES SoundAlarm <------ 
2020-02-11 16:43:30.534032 ------> REGION SCOPE DEVICES Phone <------ 
2020-02-11 16:43:30.534032 ------> END REGION SCOPE <------ 
Last scope achieved, the exception could not be handled!
